R Refresher
…
Exercise

Restyle the following pipelines following the guidelines above.

#|eval:false
flights|>filter(dest=="IAH")|>group_by(year,month,day)|>summarize(n=n(),
delay=mean(arr_delay,na.rm=TRUE))|>filter(n>10)

# A tibble: 365 × 5
# Groups:   year, month [12]
    year month   day     n delay
   <int> <int> <int> <int> <dbl>
 1  2013     1     1    20 17.8 
 2  2013     1     2    20  7   
 3  2013     1     3    19 18.3 
 4  2013     1     4    20 -3.2 
 5  2013     1     5    13 20.2 
 6  2013     1     6    18  9.28
 7  2013     1     7    19 -7.74
 8  2013     1     8    19  7.79
 9  2013     1     9    19 18.1 
10  2013     1    10    19  6.68
# ℹ 355 more rows
…
